% 5x5 average kernel image
#25
0 10.2
1 10.2
2 10.2
3 10.2
4 10.2
5 10.2
6 10.2
7 10.2
8 10.2
9 10.2
10 10.2
11 10.2
12 10.2
13 10.2
14 10.2
15 10.2
16 10.2
17 10.2
18 10.2
19 10.2
20 10.2
21 10.2
22 10.2
23 10.2
24 10.2