\beamer@endinputifotherversion {3.31pt}
\headcommand {\slideentry {0}{0}{1}{1/1}{}{0}}
\headcommand {\beamer@framepages {1}{1}}
\headcommand {\slideentry {0}{0}{2}{2/2}{}{0}}
\headcommand {\beamer@framepages {2}{2}}
\headcommand {\sectionentry {1}{Principle}{3}{Principle}{0}}
\headcommand {\beamer@sectionpages {1}{2}}
\headcommand {\beamer@subsectionpages {1}{2}}
\headcommand {\slideentry {1}{0}{3}{3/3}{}{0}}
\headcommand {\beamer@framepages {3}{3}}
\headcommand {\slideentry {1}{0}{4}{4/4}{}{0}}
\headcommand {\beamer@framepages {4}{4}}
\headcommand {\sectionentry {2}{Implementation}{5}{Implementation}{0}}
\headcommand {\beamer@sectionpages {3}{4}}
\headcommand {\beamer@subsectionpages {3}{4}}
\headcommand {\slideentry {2}{0}{5}{5/5}{}{0}}
\headcommand {\beamer@framepages {5}{5}}
\headcommand {\sectionentry {3}{Results}{6}{Results}{0}}
\headcommand {\beamer@sectionpages {5}{5}}
\headcommand {\beamer@subsectionpages {5}{5}}
\headcommand {\beamer@subsectionentry {0}{3}{1}{6}{Smoothing}}\headcommand {\beamer@subsectionpages {6}{5}}
\headcommand {\slideentry {3}{1}{1}{6/6}{Smoothing}{0}}
\headcommand {\beamer@framepages {6}{6}}
\headcommand {\slideentry {3}{1}{2}{7/7}{Smoothing}{0}}
\headcommand {\beamer@framepages {7}{7}}
\headcommand {\slideentry {3}{1}{3}{8/8}{Smoothing}{0}}
\headcommand {\beamer@framepages {8}{8}}
\headcommand {\slideentry {3}{1}{4}{9/9}{Smoothing}{0}}
\headcommand {\beamer@framepages {9}{9}}
\headcommand {\beamer@subsectionentry {0}{3}{2}{10}{Sharpening}}\headcommand {\beamer@subsectionpages {6}{9}}
\headcommand {\slideentry {3}{2}{1}{10/10}{Sharpening}{0}}
\headcommand {\beamer@framepages {10}{10}}
\headcommand {\slideentry {3}{2}{2}{11/11}{Sharpening}{0}}
\headcommand {\beamer@framepages {11}{11}}
\headcommand {\slideentry {3}{2}{3}{12/12}{Sharpening}{0}}
\headcommand {\beamer@framepages {12}{12}}
\headcommand {\sectionentry {4}{Conclusion}{13}{Conclusion}{0}}
\headcommand {\beamer@sectionpages {6}{12}}
\headcommand {\beamer@subsectionpages {10}{12}}
\headcommand {\slideentry {4}{0}{4}{13/13}{}{0}}
\headcommand {\beamer@framepages {13}{13}}
\headcommand {\slideentry {4}{0}{5}{14/14}{}{0}}
\headcommand {\beamer@framepages {14}{14}}
\headcommand {\beamer@partpages {1}{14}}
\headcommand {\beamer@subsectionpages {13}{14}}
\headcommand {\beamer@sectionpages {13}{14}}
\headcommand {\beamer@documentpages {14}}
\headcommand {\def \inserttotalframenumber {14}}
